[gd_scene load_steps=14 format=3 uid="uid://dee7dat5kmyn3"]

[ext_resource type="Script" path="res://Scripts/Door.gd" id="1_4mdud"]
[ext_resource type="Texture2D" uid="uid://bh3bwb2doe6q8" path="res://textures/walls-switches/door2_5.png" id="1_fnqxq"]
[ext_resource type="Texture2D" uid="uid://dyxp3g1qcg3st" path="res://textures/walls-switches/door2_5_uv.png" id="2_ktkit"]

[sub_resource type="StandardMaterial3D" id="StandardMaterial3D_7nh0f"]
resource_name = "Material"
cull_mode = 2
vertex_color_use_as_albedo = true
albedo_texture = ExtResource("1_fnqxq")
metallic = 0.488189
normal_enabled = true
normal_texture = ExtResource("2_ktkit")
texture_filter = 2

[sub_resource type="ArrayMesh" id="ArrayMesh_ephf3"]
_surfaces = [{
"aabb": AABB(-1, 0, -0.0879226, 2, 2, 0.175855),
"format": 4097,
"index_count": 36,
"index_data": PackedByteArray(0, 0, 3, 0, 1, 0, 0, 0, 2, 0, 3, 0, 2, 0, 7, 0, 3, 0, 2, 0, 6, 0, 7, 0, 6, 0, 5, 0, 7, 0, 6, 0, 4, 0, 5, 0, 4, 0, 1, 0, 5, 0, 4, 0, 0, 0, 1, 0, 2, 0, 4, 0, 6, 0, 2, 0, 0, 0, 4, 0, 7, 0, 1, 0, 3, 0, 7, 0, 5, 0, 1, 0),
"name": "Material",
"primitive": 3,
"vertex_count": 8,
"vertex_data": PackedByteArray(0, 0, 128, 191, 0, 0, 0, 0, 192, 16, 180, 61, 0, 0, 128, 191, 0, 0, 0, 64, 192, 16, 180, 61, 0, 0, 128, 191, 0, 0, 0, 0, 192, 16, 180, 189, 0, 0, 128, 191, 0, 0, 0, 64, 192, 16, 180, 189, 0, 0, 128, 63, 0, 0, 0, 0, 192, 16, 180, 61, 0, 0, 128, 63, 0, 0, 0, 64, 192, 16, 180, 61, 0, 0, 128, 63, 0, 0, 0, 0, 192, 16, 180, 189, 0, 0, 128, 63, 0, 0, 0, 64, 192, 16, 180, 189)
}]
blend_shape_mode = 0

[sub_resource type="ArrayMesh" id="ArrayMesh_qxjvy"]
resource_name = "exitdoor-e8ec1748697ad182d3cab40c3e9c0151_Cube"
_surfaces = [{
"aabb": AABB(-1, 0, -0.0879226, 2, 2, 0.175855),
"attribute_data": PackedByteArray(82, 81, 73, 64, 137, 180, 127, 63, 244, 236, 126, 63, 145, 6, 149, 63, 0, 76, 248, 186, 140, 180, 127, 63, 82, 81, 73, 64, 0, 228, 150, 58, 0, 76, 248, 186, 0, 228, 150, 58, 244, 236, 126, 63, 240, 208, 234, 189, 201, 111, 63, 64, 139, 180, 127, 63, 6, 43, 255, 63, 144, 6, 149, 63, 6, 43, 255, 63, 0, 228, 150, 58, 201, 111, 63, 64, 0, 228, 150, 58, 6, 43, 255, 63, 139, 180, 127, 63, 6, 43, 255, 63, 240, 208, 234, 189, 244, 236, 126, 63, 140, 180, 127, 63, 244, 236, 126, 63, 140, 180, 127, 63, 244, 236, 126, 63, 140, 180, 127, 63, 244, 236, 126, 63, 0, 228, 150, 58, 244, 236, 126, 63, 0, 228, 150, 58, 244, 236, 126, 63, 0, 228, 150, 58, 6, 43, 255, 63, 139, 180, 127, 63, 201, 111, 63, 64, 0, 228, 150, 58, 6, 43, 255, 63, 139, 180, 127, 63, 201, 111, 63, 64, 139, 180, 127, 63, 6, 43, 255, 63, 0, 228, 150, 58, 6, 43, 255, 63, 0, 228, 150, 58),
"format": 4119,
"index_count": 36,
"index_data": PackedByteArray(0, 0, 9, 0, 3, 0, 0, 0, 6, 0, 9, 0, 8, 0, 21, 0, 10, 0, 8, 0, 19, 0, 21, 0, 20, 0, 17, 0, 23, 0, 20, 0, 14, 0, 17, 0, 13, 0, 4, 0, 15, 0, 13, 0, 2, 0, 4, 0, 7, 0, 12, 0, 18, 0, 7, 0, 1, 0, 12, 0, 22, 0, 5, 0, 11, 0, 22, 0, 16, 0, 5, 0),
"material": SubResource("StandardMaterial3D_7nh0f"),
"name": "Material",
"primitive": 3,
"vertex_count": 24,
"vertex_data": PackedByteArray(0, 0, 128, 191, 0, 0, 0, 0, 192, 16, 180, 61, 0, 0, 255, 127, 255, 127, 255, 191, 0, 0, 128, 191, 0, 0, 0, 0, 192, 16, 180, 61, 255, 127, 0, 0, 0, 0, 254, 255, 0, 0, 128, 191, 0, 0, 0, 0, 192, 16, 180, 61, 255, 127, 255, 127, 255, 255, 255, 191, 0, 0, 128, 191, 0, 0, 0, 64, 192, 16, 180, 61, 0, 0, 255, 127, 255, 127, 255, 191, 0, 0, 128, 191, 0, 0, 0, 64, 192, 16, 180, 61, 255, 127, 255, 127, 255, 255, 255, 191, 0, 0, 128, 191, 0, 0, 0, 64, 192, 16, 180, 61, 255, 127, 255, 255, 255, 255, 255, 255, 0, 0, 128, 191, 0, 0, 0, 0, 192, 16, 180, 189, 0, 0, 255, 127, 255, 127, 255, 191, 0, 0, 128, 191, 0, 0, 0, 0, 192, 16, 180, 189, 255, 127, 0, 0, 0, 0, 254, 255, 0, 0, 128, 191, 0, 0, 0, 0, 192, 16, 180, 189, 255, 255, 255, 255, 255, 255, 255, 191, 0, 0, 128, 191, 0, 0, 0, 64, 192, 16, 180, 189, 0, 0, 255, 127, 255, 127, 255, 191, 0, 0, 128, 191, 0, 0, 0, 64, 192, 16, 180, 189, 255, 255, 255, 255, 255, 255, 255, 191, 0, 0, 128, 191, 0, 0, 0, 64, 192, 16, 180, 189, 255, 127, 255, 255, 255, 255, 255, 255, 0, 0, 128, 63, 0, 0, 0, 0, 192, 16, 180, 61, 255, 127, 0, 0, 0, 0, 254, 255, 0, 0, 128, 63, 0, 0, 0, 0, 192, 16, 180, 61, 255, 127, 255, 127, 255, 255, 255, 191, 0, 0, 128, 63, 0, 0, 0, 0, 192, 16, 180, 61, 255, 255, 255, 127, 254, 255, 0, 128, 0, 0, 128, 63, 0, 0, 0, 64, 192, 16, 180, 61, 255, 127, 255, 127, 255, 255, 255, 191, 0, 0, 128, 63, 0, 0, 0, 64, 192, 16, 180, 61, 255, 127, 255, 255, 255, 255, 255, 255, 0, 0, 128, 63, 0, 0, 0, 64, 192, 16, 180, 61, 255, 255, 255, 127, 255, 255, 0, 128, 0, 0, 128, 63, 0, 0, 0, 0, 192, 16, 180, 189, 255, 127, 0, 0, 0, 0, 254, 255, 0, 0, 128, 63, 0, 0, 0, 0, 192, 16, 180, 189, 255, 255, 255, 255, 255, 255, 255, 191, 0, 0, 128, 63, 0, 0, 0, 0, 192, 16, 180, 189, 255, 255, 255, 127, 254, 255, 0, 128, 0, 0, 128, 63, 0, 0, 0, 64, 192, 16, 180, 189, 255, 255, 255, 255, 255, 255, 255, 191, 0, 0, 128, 63, 0, 0, 0, 64, 192, 16, 180, 189, 255, 127, 255, 255, 255, 255, 255, 255, 0, 0, 128, 63, 0, 0, 0, 64, 192, 16, 180, 189, 255, 255, 255, 127, 255, 255, 255, 255)
}]
blend_shape_mode = 0
shadow_mesh = SubResource("ArrayMesh_ephf3")

[sub_resource type="ConcavePolygonShape3D" id="ConcavePolygonShape3D_ey37n"]
data = PackedVector3Array(-1, 0, 0.0879226, -1, 2, -0.0879226, -1, 2, 0.0879226, -1, 0, 0.0879226, -1, 0, -0.0879226, -1, 2, -0.0879226, -1, 0, -0.0879226, 1, 2, -0.0879226, -1, 2, -0.0879226, -1, 0, -0.0879226, 1, 0, -0.0879226, 1, 2, -0.0879226, 1, 0, -0.0879226, 1, 2, 0.0879226, 1, 2, -0.0879226, 1, 0, -0.0879226, 1, 0, 0.0879226, 1, 2, 0.0879226, 1, 0, 0.0879226, -1, 2, 0.0879226, 1, 2, 0.0879226, 1, 0, 0.0879226, -1, 0, 0.0879226, -1, 2, 0.0879226, -1, 0, -0.0879226, 1, 0, 0.0879226, 1, 0, -0.0879226, -1, 0, -0.0879226, -1, 0, 0.0879226, 1, 0, 0.0879226, 1, 2, -0.0879226, -1, 2, 0.0879226, -1, 2, -0.0879226, 1, 2, -0.0879226, 1, 2, 0.0879226, -1, 2, 0.0879226)

[sub_resource type="BoxShape3D" id="BoxShape3D_jspdd"]
size = Vector3(3.02107, 3.01356, 0.280132)

[sub_resource type="Animation" id="Animation_q4ecf"]
resource_name = "Close"
tracks/0/type = "value"
tracks/0/imported = false
tracks/0/enabled = true
tracks/0/path = NodePath("ExitDoor:position")
tracks/0/interp = 1
tracks/0/loop_wrap = true
tracks/0/keys = {
"times": PackedFloat32Array(0, 1),
"transitions": PackedFloat32Array(1, 1),
"update": 0,
"values": [Vector3(-2.91783, 0, 0), Vector3(0, 0, 0)]
}

[sub_resource type="Animation" id="Animation_yaind"]
resource_name = "Open"
tracks/0/type = "value"
tracks/0/imported = false
tracks/0/enabled = true
tracks/0/path = NodePath("ExitDoor:position")
tracks/0/interp = 1
tracks/0/loop_wrap = true
tracks/0/keys = {
"times": PackedFloat32Array(0, 1),
"transitions": PackedFloat32Array(1, 1),
"update": 0,
"values": [Vector3(0, 0, 0), Vector3(-2.91783, 0, 0)]
}

[sub_resource type="Animation" id="Animation_rdcdc"]
resource_name = "Pulse"
length = 2.0
loop_mode = 1
tracks/0/type = "value"
tracks/0/imported = false
tracks/0/enabled = true
tracks/0/path = NodePath("ExitDoor/OmniLight3D:light_energy")
tracks/0/interp = 1
tracks/0/loop_wrap = true
tracks/0/keys = {
"times": PackedFloat32Array(0, 1, 2),
"transitions": PackedFloat32Array(1, 1, 1),
"update": 0,
"values": [3.0, 0.027, 2.5]
}

[sub_resource type="Animation" id="Animation_xocmv"]
length = 0.001
tracks/0/type = "value"
tracks/0/imported = false
tracks/0/enabled = true
tracks/0/path = NodePath("ExitDoor/OmniLight3D:light_energy")
tracks/0/interp = 1
tracks/0/loop_wrap = true
tracks/0/keys = {
"times": PackedFloat32Array(0),
"transitions": PackedFloat32Array(1),
"update": 0,
"values": [0.027]
}

[sub_resource type="AnimationLibrary" id="AnimationLibrary_bug7t"]
_data = {
"Close": SubResource("Animation_q4ecf"),
"Open": SubResource("Animation_yaind"),
"Pulse": SubResource("Animation_rdcdc"),
"RESET": SubResource("Animation_xocmv")
}

[node name="exitdoor" type="Area3D"]
collision_layer = 2
script = ExtResource("1_4mdud")
keyType = "RedKey"

[node name="ExitDoor" type="MeshInstance3D" parent="."]
transform = Transform3D(1.5, 0, 0, 0, 1.5, 0, 0, 0, 1.5, 0, 0, 0)
mesh = SubResource("ArrayMesh_qxjvy")
skeleton = NodePath("")

[node name="OmniLight3D" type="SpotLight3D" parent="ExitDoor"]
transform = Transform3D(1, 0, 0, 0, 1, 0, 0, 0, 1, 0.716817, 0.889378, 0.155936)
light_color = Color(1, 0, 0, 1)
light_energy = 0.027
shadow_enabled = true
spot_range = 0.492
spot_angle = 74.8891

[node name="StaticBody3D" type="StaticBody3D" parent="ExitDoor"]

[node name="CollisionShape3D" type="CollisionShape3D" parent="ExitDoor/StaticBody3D"]
shape = SubResource("ConcavePolygonShape3D_ey37n")

[node name="CollisionShape3D" type="CollisionShape3D" parent="."]
transform = Transform3D(1, 0, 0, 0, 1, 0, 0, 0, 1, 2.08165e-12, 1.5, 2.08165e-12)
shape = SubResource("BoxShape3D_jspdd")

[node name="AnimationPlayer" type="AnimationPlayer" parent="."]
autoplay = "Pulse"
libraries = {
"": SubResource("AnimationLibrary_bug7t")
}

[node name="Timer" type="Timer" parent="."]
wait_time = 3.0

[connection signal="timeout" from="Timer" to="." method="_on_timer_timeout"]
