{
	"asset":{
		"generator":"Khronos glTF Blender I/O v3.6.27",
		"version":"2.0"
	},
	"scene":0,
	"scenes":[
		{
			"extras":{
				"SUBSTANCE_SHP_01_cycles_std":{},
				"SUBSTANCE_SHO_01_cycles_std":{}
			},
			"name":"Scene",
			"nodes":[
				0
			]
		}
	],
	"nodes":[
		{
			"mesh":0,
			"name":"Flashlight"
		}
	],
	"materials":[
		{
			"doubleSided":true,
			"name":"yellow",
			"pbrMetallicRoughness":{
				"baseColorFactor":[
					0.8000000715255737,
					0.3883412778377533,
					0,
					1
				],
				"metallicFactor":0,
				"roughnessFactor":0.5
			}
		},
		{
			"doubleSided":true,
			"name":"black",
			"pbrMetallicRoughness":{
				"baseColorFactor":[
					0,
					0,
					0,
					1
				],
				"metallicFactor":0,
				"roughnessFactor":0.5
			}
		},
		{
			"doubleSided":true,
			"emissiveFactor":[
				1,
				1,
				1
			],
			"name":"clear",
			"pbrMetallicRoughness":{
				"baseColorFactor":[
					0.800000011920929,
					0.800000011920929,
					0.800000011920929,
					1
				],
				"metallicFactor":0,
				"roughnessFactor":0.5
			}
		}
	],
	"meshes":[
		{
			"name":"Circle",
			"primitives":[
				{
					"attributes":{
						"POSITION":0,
						"NORMAL":1,
						"TEXCOORD_0":2,
						"TANGENT":3
					},
					"indices":4,
					"material":0
				},
				{
					"attributes":{
						"POSITION":5,
						"NORMAL":6,
						"TEXCOORD_0":7,
						"TANGENT":8
					},
					"indices":9,
					"material":1
				},
				{
					"attributes":{
						"POSITION":10,
						"NORMAL":11,
						"TEXCOORD_0":12,
						"TANGENT":13
					},
					"indices":14,
					"material":2
				}
			]
		}
	],
	"accessors":[
		{
			"bufferView":0,
			"componentType":5126,
			"count":313,
			"max":[
				0.14712221920490265,
				0.33881959319114685,
				0.14712221920490265
			],
			"min":[
				-0.14712221920490265,
				-0.5064536929130554,
				-0.14712221920490265
			],
			"type":"VEC3"
		},
		{
			"bufferView":1,
			"componentType":5126,
			"count":313,
			"type":"VEC3"
		},
		{
			"bufferView":2,
			"componentType":5126,
			"count":313,
			"type":"VEC2"
		},
		{
			"bufferView":3,
			"componentType":5126,
			"count":313,
			"type":"VEC4"
		},
		{
			"bufferView":4,
			"componentType":5123,
			"count":684,
			"type":"SCALAR"
		},
		{
			"bufferView":5,
			"componentType":5126,
			"count":218,
			"max":[
				0.17005060613155365,
				0.5409567356109619,
				0.17005060613155365
			],
			"min":[
				-0.17005060613155365,
				0.06421595811843872,
				-0.17005060613155365
			],
			"type":"VEC3"
		},
		{
			"bufferView":6,
			"componentType":5126,
			"count":218,
			"type":"VEC3"
		},
		{
			"bufferView":7,
			"componentType":5126,
			"count":218,
			"type":"VEC2"
		},
		{
			"bufferView":8,
			"componentType":5126,
			"count":218,
			"type":"VEC4"
		},
		{
			"bufferView":9,
			"componentType":5123,
			"count":444,
			"type":"SCALAR"
		},
		{
			"bufferView":10,
			"componentType":5126,
			"count":228,
			"max":[
				0.12221671640872955,
				0.5449413657188416,
				0.12221671640872955
			],
			"min":[
				-0.12221671640872955,
				0.5246481895446777,
				-0.12221671640872955
			],
			"type":"VEC3"
		},
		{
			"bufferView":11,
			"componentType":5126,
			"count":228,
			"type":"VEC3"
		},
		{
			"bufferView":12,
			"componentType":5126,
			"count":228,
			"type":"VEC2"
		},
		{
			"bufferView":13,
			"componentType":5126,
			"count":228,
			"type":"VEC4"
		},
		{
			"bufferView":14,
			"componentType":5123,
			"count":324,
			"type":"SCALAR"
		}
	],
	"bufferViews":[
		{
			"buffer":0,
			"byteLength":3756,
			"byteOffset":0,
			"target":34962
		},
		{
			"buffer":0,
			"byteLength":3756,
			"byteOffset":3756,
			"target":34962
		},
		{
			"buffer":0,
			"byteLength":2504,
			"byteOffset":7512,
			"target":34962
		},
		{
			"buffer":0,
			"byteLength":5008,
			"byteOffset":10016,
			"target":34962
		},
		{
			"buffer":0,
			"byteLength":1368,
			"byteOffset":15024,
			"target":34963
		},
		{
			"buffer":0,
			"byteLength":2616,
			"byteOffset":16392,
			"target":34962
		},
		{
			"buffer":0,
			"byteLength":2616,
			"byteOffset":19008,
			"target":34962
		},
		{
			"buffer":0,
			"byteLength":1744,
			"byteOffset":21624,
			"target":34962
		},
		{
			"buffer":0,
			"byteLength":3488,
			"byteOffset":23368,
			"target":34962
		},
		{
			"buffer":0,
			"byteLength":888,
			"byteOffset":26856,
			"target":34963
		},
		{
			"buffer":0,
			"byteLength":2736,
			"byteOffset":27744,
			"target":34962
		},
		{
			"buffer":0,
			"byteLength":2736,
			"byteOffset":30480,
			"target":34962
		},
		{
			"buffer":0,
			"byteLength":1824,
			"byteOffset":33216,
			"target":34962
		},
		{
			"buffer":0,
			"byteLength":3648,
			"byteOffset":35040,
			"target":34962
		},
		{
			"buffer":0,
			"byteLength":648,
			"byteOffset":38688,
			"target":34963
		}
	],
	"buffers":[
		{
			"byteLength":39336,
			"uri":"flashlight-c02f5ab43e74a65fdfb51e24d00d2f51.bin"
		}
	]
}
